…
### Save mu_hat and p-value from t-test

``` r
output %>% 
    mutate(
      res = map(x, t.test),
      res = map(res, broom::tidy)) %>% 
  unnest(res) %>% 
  select(estimate, p.value)
```

    ## # A tibble: 5,000 × 2
    ##    estimate p.value
    ##       <dbl>   <dbl>
    ##  1  -1.62     0.102
    ##  2   0.361    0.641
    ##  3  -0.638    0.368
    ##  4   0.422    0.669
    ##  5   0.0121   0.990
    ##  6   0.795    0.410
    ##  7  -0.910    0.364
    ##  8   0.467    0.622
    ##  9   0.962    0.251
    ## 10  -0.260    0.826
    ## # … with 4,990 more rows
…
